ass1-pipe/gtkwave.vcd
$version Generated by VerilatedVcd $end
$date Wed Nov 16 14:37:45 2022
 $end
$timescale   1ps $end

 $scope module TOP $end
  $var wire  1 &! clock $end
  $var wire  1 '! reset $end
  $scope module testbench $end
   $var wire 32 (! MEM_ADDR_WIDTH [31:0] $end
   $var wire  1 &! clock $end
   $var wire 32 * cycles [31:0] $end
   $var wire 32 t dmem_addr [31:0] $end
   $var wire 32 & dmem_rdata [31:0] $end
   $var wire  1 s dmem_valid $end
   $var wire 32 v dmem_wdata [31:0] $end
   $var wire  4 u dmem_wstrb [3:0] $end
   $var wire 32 ) i [31:0] $end
   $var wire 32 r imem_addr [31:0] $end
   $var wire 32 % imem_data [31:0] $end
   $var wire 32 ' out [31:0] $end
   $var wire  1 ( out_valid $end
   $var wire  1 '! reset $end
   $var wire  1 # trap $end
   $var wire  1 w wr_in_mem_range $end
   $var wire  1 x wr_in_output $end
   $var wire 32 $ x10 [31:0] $end
   $scope module dut $end
    $var wire  1 S Asrc $end
    $var wire  1 T Bsrc $end
    $var wire 32 *! NUMREGS [31:0] $end
    $var wire  7 8! OPCODE_AMO [6:0] $end
    $var wire  7 ?! OPCODE_AUIPC [6:0] $end
    $var wire  7 .! OPCODE_BRANCH [6:0] $end
    $var wire  7 3! OPCODE_CUSTOM_0 [6:0] $end
    $var wire  7 4! OPCODE_CUSTOM_1 [6:0] $end
    $var wire  7 E! OPCODE_CUSTOM_2 [6:0] $end
    $var wire  7 F! OPCODE_CUSTOM_3 [6:0] $end
    $var wire  7 :! OPCODE_JAL [6:0] $end
    $var wire  7 2! OPCODE_JALR [6:0] $end
    $var wire  7 +! OPCODE_LOAD [6:0] $end
    $var wire  7 /! OPCODE_LOAD_FP [6:0] $end
    $var wire  7 @! OPCODE_LUI [6:0] $end
    $var wire  7 -! OPCODE_MADD [6:0] $end
    $var wire  7 7! OPCODE_MISC_MEM [6:0] $end
    $var wire  7 1! OPCODE_MSUB [6:0] $end
    $var wire  7 9! OPCODE_NMADD [6:0] $end
    $var wire  7 5! OPCODE_NMSUB [6:0] $end
    $var wire  7 <! OPCODE_OP [6:0] $end
    $var wire  7 D! OPCODE_OP_32 [6:0] $end
    $var wire  7 =! OPCODE_OP_FP [6:0] $end
    $var wire  7 ;! OPCODE_OP_IMM [6:0] $end
    $var wire  7 C! OPCODE_OP_IMM_32 [6:0] $end
    $var wire  7 6! OPCODE_RESERVED_0 [6:0] $end
    $var wire  7 A! OPCODE_RESERVED_1 [6:0] $end
    $var wire  7 B! OPCODE_RESERVED_2 [6:0] $end
    $var wire  7 ,! OPCODE_STORE [6:0] $end
    $var wire  7 0! OPCODE_STORE_FP [6:0] $end
    $var wire  7 >! OPCODE_SYSTEM [6:0] $end
    $var wire 32 )! RESET_ADDR [31:0] $end
    $var wire  1 &! clock $end
    $var wire 32 t dmem_addr [31:0] $end
    $var wire 32 & dmem_rdata [31:0] $end
    $var wire  1 s dmem_valid $end
    $var wire 32 v dmem_wdata [31:0] $end
    $var wire  4 u dmem_wstrb [3:0] $end
    $var wire  1 %! illinsn $end
    $var wire 32 r imem_addr [31:0] $end
    $var wire 32 O imem_addr_q [31:0] $end
    $var wire 32 % imem_data [31:0] $end
    $var wire 13 h imm_b [12:0] $end
    $var wire 32 l imm_b_sext_q [31:0] $end
    $var wire 12 f imm_i [11:0] $end
    $var wire 32 j imm_i_sext_q [31:0] $end
    $var wire 21 i imm_j [20:0] $end
    $var wire 32 m imm_j_sext_q [31:0] $end
    $var wire 12 g imm_s [11:0] $end
    $var wire 32 k imm_s_sext_q [31:0] $end
    $var wire 32 % insn [31:0] $end
    $var wire  3 ] insn_funct3 [2:0] $end
    $var wire  3 c insn_funct3_q [2:0] $end
    $var wire  7 Z insn_funct7 [6:0] $end
    $var wire  7 ` insn_funct7_q [6:0] $end
    $var wire  7 _ insn_opcode [6:0] $end
    $var wire  7 e insn_opcode_q [6:0] $end
    $var wire 32 V insn_q [31:0] $end
    $var wire  5 ^ insn_rd [4:0] $end
    $var wire  5 d insn_rd_q [4:0] $end
    $var wire  5 \ insn_rs1 [4:0] $end
    $var wire  5 b insn_rs1_q [4:0] $end
    $var wire  5 [ insn_rs2 [4:0] $end
    $var wire  5 a insn_rs2_q [4:0] $end
    $var wire  1 P isPCload $end
    $var wire  1 U kill $end
    $var wire  1 Q load_freeze $end
    $var wire 32 ~ mem_rd_addr [31:0] $end
    $var wire  1 } mem_rd_enable $end
    $var wire  1 + mem_rd_enable_q $end
    $var wire  5 "! mem_rd_func [4:0] $end
    $var wire  5 - mem_rd_func_q [4:0] $end
    $var wire  5 !! mem_rd_reg [4:0] $end
    $var wire  5 , mem_rd_reg_q [4:0] $end
    $var wire 32 q mem_rdata [31:0] $end
    $var wire 32 z mem_wr_addr [31:0] $end
    $var wire 32 { mem_wr_data [31:0] $end
    $var wire  1 y mem_wr_enable $end
    $var wire  4 | mem_wr_strb [3:0] $end
    $var wire 32 n next_rd [31:0] $end
    $var wire  1 $! next_wr $end
    $var wire 32 #! npc [31:0] $end
    $var wire 32 N pc [31:0] $end
    $var wire 32 W ppc [31:0] $end
    $var wire 32 . regfile(0) [31:0] $end
    $var wire 32 / regfile(1) [31:0] $end
    $var wire 32 8 regfile(10) [31:0] $end
    $var wire 32 9 regfile(11) [31:0] $end
    $var wire 32 : regfile(12) [31:0] $end
    $var wire 32 ; regfile(13) [31:0] $end
    $var wire 32 < regfile(14) [31:0] $end
    $var wire 32 = regfile(15) [31:0] $end
    $var wire 32 > regfile(16) [31:0] $end
    $var wire 32 ? regfile(17) [31:0] $end
    $var wire 32 @ regfile(18) [31:0] $end
    $var wire 32 A regfile(19) [31:0] $end
    $var wire 32 0 regfile(2) [31:0] $end
    $var wire 32 B regfile(20) [31:0] $end
    $var wire 32 C regfile(21) [31:0] $end
    $var wire 32 D regfile(22) [31:0] $end
    $var wire 32 E regfile(23) [31:0] $end
    $var wire 32 F regfile(24) [31:0] $end
    $var wire 32 G regfile(25) [31:0] $end
    $var wire 32 H regfile(26) [31:0] $end
    $var wire 32 I regfile(27) [31:0] $end
    $var wire 32 J regfile(28) [31:0] $end
    $var wire 32 K regfile(29) [31:0] $end
    $var wire 32 1 regfile(3) [31:0] $end
    $var wire 32 L regfile(30) [31:0] $end
    $var wire 32 M regfile(31) [31:0] $end
    $var wire 32 2 regfile(4) [31:0] $end
    $var wire 32 3 regfile(5) [31:0] $end
    $var wire 32 4 regfile(6) [31:0] $end
    $var wire 32 5 regfile(7) [31:0] $end
    $var wire 32 6 regfile(8) [31:0] $end
    $var wire 32 7 regfile(9) [31:0] $end
    $var wire  1 '! reset $end
    $var wire  1 p reset_q $end
    $var wire 32 X rs1_value_q [31:0] $end
    $var wire 32 Y rs2_value_q [31:0] $end
    $var wire  1 R stall $end
    $var wire  1 # trap $end
    $var wire  1 # trapped $end
    $var wire  1 o trapped_q $end
    $var wire 32 $ x10 [31:0] $end
   $upscope $end
  $upscope $end
 $upscope $end
$enddefinitions $end


#5
0#
b00000000000000000000000000000000 $
b00000000000000000000000000000000 %
b00000000000000000000000000000000 &
b00000000000000000000000000000000 '
0(
b00000000000000000000000000000000 )
b00000000000000000000000000000000 *
0+
b00000 ,
b00000 -
b00000000000000000000000000000000 .
b00000000000000000000000000000000 /
b00000000000000000000000000000000 0
b00000000000000000000000000000000 1
b00000000000000000000000000000000 2
b00000000000000000000000000000000 3
b00000000000000000000000000000000 4
b00000000000000000000000000000000 5
b00000000000000000000000000000000 6
b00000000000000000000000000000000 7
b00000000000000000000000000000000 8
b00000000000000000000000000000000 9
b00000000000000000000000000000000 :
b00000000000000000000000000000000 ;
b00000000000000000000000000000000 <
b00000000000000000000000000000000 =
b00000000000000000000000000000000 >
b00000000000000000000000000000000 ?
b00000000000000000000000000000000 @
b00000000000000000000000000000000 A
b00000000000000000000000000000000 B
b00000000000000000000000000000000 C
b00000000000000000000000000000000 D
b00000000000000000000000000000000 E
b00000000000000000000000000000000 F
b00000000000000000000000000000000 G
b00000000000000000000000000000000 H
b00000000000000000000000000000000 I
b00000000000000000000000000000000 J
b00000000000000000000000000000000 K
b00000000000000000000000000000000 L
b00000000000000000000000000000000 M
b00000000000000000000000000000000 N
b00000000000000000000000000000000 O
0P
0Q
0R
0S
0T
0U
b00000000000000000000000000000000 V
b00000000000000000000000000000000 W
b00000000000000000000000000000000 X
b00000000000000000000000000000000 Y
b0000000 Z
b00000 [
b00000 \
b000 ]
b00000 ^
b0000000 _
b0000000 `
b00000 a
b00000 b
b000 c
b00000 d
b0000000 e
b000000000000 f
b000000000000 g
b0000000000000 h
b000000000000000000000 i
b00000000000000000000000000000000 j
b00000000000000000000000000000000 k
b00000000000000000000000000000000 l
b00000000000000000000000000000000 m
b00000000000000000000000000000000 n
0o
0p
b00000000000000000000000000000000 q
b00000000000000000000000000000100 r
0s
b00000000000000000000000000000000 t
b0000 u
b00000000000000000000000000000000 v
1w
0x
0y
b00000000000000000000000000000000 z
b00000000000000000000000000000000 {
b0000 |
0}
b00000000000000000000000000000000 ~
b00000 !!
b00000 "!
b00000000000000000000000000000100 #!
0$!
1%!
0&!
0'!
b00000000000000000000000000010000 (!
b00000000000000000000000000000000 )!
b00000000000000000000000000100000 *!
b0000011 +!
b0100011 ,!
b1000011 -!
b1100011 .!
b0000111 /!
b0100111 0!
b1000111 1!
b1100111 2!
b0001011 3!
b0101011 4!
b1001011 5!
b1101011 6!
b0001111 7!
b0101111 8!
b1001111 9!
b1101111 :!
b0010011 ;!
b0110011 <!
b1010011 =!
b1110011 >!
b0010111 ?!
b0110111 @!
b1010111 A!
b1110111 B!
b0011011 C!
b0111011 D!
b1011011 E!
b1111011 F!
#10
#15
b00000000000000000000000000000000 r
b00000000000000000000000000000000 #!
0%!
1'!
#20
#25
b00000000000000010000000100110111 %
b00000000000000000000000000000001 *
b11111111111111111111111111111100 N
b00010 \
b00010 ^
b0110111 _
b000000000010 g
b0000000000010 h
b000010000000000000000 i
1p
1&!
#30
#35
0&!
#40
#45
b00000000000000000000000000000010 *
b00000000000000010000000100110111 V
b11111111111111111111111111111100 W
b00010 b
b00010 d
b0110111 e
b00000000000000000000000000000010 k
b00000000000000000000000000000010 l
b00000000000000010000000000000000 m
b00000000000000010000000000000000 n
1&!
#50
#55
0&!
#60
#65
b00000000000000000000000000000011 *
1&!
#70
#75
0&!
#80
#85
b00000000000000000000000000000100 *
1&!
#90
#95
0&!
0'!
#100
#105
b00000000000000000000000000000101 *
b00000000000000000000000000000000 N
0p
b00000000000000000000000000000100 r
b00000000000000000000000000000100 #!
1$!
1&!
#110
#115
0&!
#120
#125
b00001101000000000000000011101111 %
b00000000000000000000000000000110 *
b00000000000000010000000000000000 0
b00000000000000000000000000000100 N
b00000000000000000000000000000100 O
b00000000000000000000000000000000 W
b0000110 Z
b10000 [
b00000 \
b00001 ^
b1101111 _
b000011010000 f
b000011000001 g
b0100011000000 h
b000000000000011010000 i
b00000000000000000000000000001000 r
b00000000000000000000000000001000 #!
1&!
#130
#135
0&!
#140
#145
b00000000000100000000000001110011 %
b00000000000000000000000000000111 *
b00000000000000000000000000001000 N
b00000000000000000000000000001000 O
1U
b00001101000000000000000011101111 V
b00000000000000000000000000000100 W
b0000000 Z
b00001 [
b00000 ^
b1110011 _
b0000110 `
b10000 a
b00000 b
b00001 d
b1101111 e
b000000000001 f
b000000000000 g
b0000000000000 h
b000000000100000000000 i
b00000000000000000000000011010000 j
b00000000000000000000000011000001 k
b00000000000000000000100011000000 l
b00000000000000000000000011010000 m
b00000000000000000000000000001000 n
b00000000000000000000000011010100 r
b00000000000000000000000011010100 #!
1&!
#150
#155
0&!
#160
#165
b11111110000000010000000100010011 %
b00000000000000000000000000001000 *
b00000000000000000000000000001000 /
b00000000000000000000000011010100 N
b00000000000000000000000011010100 O
0U
b00000000000000000000000000010011 V
b1111111 Z
b00000 [
b00010 \
b00010 ^
b0010011 _
b0000000 `
b00000 a
b00000 d
b0010011 e
b111111100000 f
b111111100010 g
b1011111100010 h
b100010000011111100000 i
b00000000000000000000000000000001 j
b00000000000000000000000000000000 k
b00000000000000000000000000000000 l
b00000000000000000000100000000000 m
b00000000000000000000000000000001 n
b00000000000000000000000011011000 r
b00000000000000000000000011011000 #!
1&!
#170
#175
0&!
#180
#185
b00000000000100010010111000100011 %
b00000000000000000000000000001001 *
b00000000000000000000000000000001 .
b00000000000000000000000011011000 N
b00000000000000000000000011011000 O
1R
b11111110000000010000000100010011 V
b00000000000000000000000011010100 W
b00000000000000010000000000000000 X
b0000000 Z
b00001 [
b010 ]
b11100 ^
b0100011 _
b1111111 `
b00010 b
b00010 d
b000000000001 f
b000000011100 g
b0000000011100 h
b000010010100000000000 i
b11111111111111111111111111100000 j
b11111111111111111111111111100010 k
b11111111111111111111011111100010 l
b11111111111100010000011111100000 m
b00000000000000001111111111100000 n
1&!
#190
#195
0&!
#200
#205
b00000000000000000000000000001010 *
b00000000000000001111111111100000 0
0R
b00000000000000000000000000010011 V
b00000000000000000000000000001000 Y
b0000000 `
b00000 b
b00000 d
b00000000000000000000000000000001 j
b00000000000000000000000000011100 k
b00000000000000000000000000011100 l
b00000000000000010010100000000000 m
b00000000000000010000000000000001 n
b00000000000000000000000011011100 r
b00000000000000000000000011011100 #!
1&!
#210
#215
0&!
#220
#225
b00000000100000010010110000100011 %
b00000000000000000000000000001011 *
b00000000000000010000000000000001 .
b00000000000000000000000011011100 N
b00000000000000000000000011011100 O
b00000000000100010010111000100011 V
b00000000000000000000000011011000 W
b00000000000000001111111111100000 X
b01000 [
b11000 ^
b00001 a
b00010 b
b010 c
b11100 d
b0100011 e
b000000001000 f
b000000011000 g
b0000000011000 h
b000010010000000001000 i
b00000000000000000000000000000000 n
b00000000000000000000000011100000 r
1s
b00000000000000001111111111111100 t
b1111 u
b00000000000000000000000000001000 v
1y
b00000000000000001111111111111100 z
b00000000000000000000000000001000 {
b1111 |
b00000000000000000000000011100000 #!
0$!
1&!
#230
#235
0&!
#240
#245
b00000000100100010010101000100011 %
b00000000000000000000000000000100 )
b00000000000000000000000000001100 *
b00000000000000000000000011100000 N
b00000000000000000000000011100000 O
b00000000100000010010110000100011 V
b00000000000000000000000011011100 W
b00000000000000000000000000000000 Y
b01001 [
b10100 ^
b01000 a
b11000 d
b000000001001 f
b000000010100 g
b0000000010100 h
b000010010100000001000 i
b00000000000000000000000000001000 j
b00000000000000000000000000011000 k
b00000000000000000000000000011000 l
b00000000000000010010000000001000 m
b00000000000000000000000011100100 r
b00000000000000001111111111111000 t
b00000000000000000000000000000000 v
b00000000000000001111111111111000 z
b00000000000000000000000000000000 {
b00000000000000000000000011100100 #!
1&!
#250
#255
0&!
#260
#265
b00000001001000010010100000100011 %
b00000000000000000000000000001101 *
b00000000000000000000000011100100 N
b00000000000000000000000011100100 O
b00000000100100010010101000100011 V
b00000000000000000000000011100000 W
b10010 [
b10000 ^
b01001 a
b10100 d
b000000010010 f
b000000010000 g
b0000000010000 h
b000010010000000010010 i
b00000000000000000000000000001001 j
b00000000000000000000000000010100 k
b00000000000000000000000000010100 l
b00000000000000010010100000001000 m
b00000000000000000000000011101000 r
b00000000000000001111111111110100 t
b00000000000000001111111111110100 z
b00000000000000000000000011101000 #!
1&!
#270
#275
0&!
#280
#285
b00000001001100010010011000100011 %
b00000000000000000000000000001110 *
b00000000000000000000000011101000 N
b00000000000000000000000011101000 O
b00000001001000010010100000100011 V
b00000000000000000000000011100100 W
b10011 [
b01100 ^
b10010 a
b10000 d
b000000010011 f
b000000001100 g
b0000000001100 h
b000010010100000010010 i
b00000000000000000000000000010010 j
b00000000000000000000000000010000 k
b00000000000000000000000000010000 l
b00000000000000010010000000010010 m
b00000000000000000000000011101100 r
b00000000000000001111111111110000 t
b00000000000000001111111111110000 z
b00000000000000000000000011101100 #!
1&!
#290
#295
0&!
#300
#305
b00000100001000000000011010010011 %
b00000000000000000000000000001111 *
b00000000000000000000000011101100 N
b00000000000000000000000011101100 O
b00000001001100010010011000100011 V
b00000000000000000000000011101000 W
b0000010 Z
b00010 [
b00000 \
b000 ]
b01101 ^
b0010011 _
b10011 a
b01100 d
b000001000010 f
b000001001101 g
b0100001001100 h
b000000000000001000010 i
b00000000000000000000000000010011 j
b00000000000000000000000000001100 k
b00000000000000000000000000001100 l
b00000000000000010010100000010010 m
b00000000000000000000000011110000 r
b00000000000000001111111111101100 t
b00000000000000001111111111101100 z
b00000000000000000000000011110000 #!
1&!
#310
#315
0&!
#320
#325
b00000100001100000000011000010011 %
b00000000000000000000000000010000 *
b00000000000000000000000011110000 N
b00000000000000000000000011110000 O
b00000100001000000000011010010011 V
b00000000000000000000000011101100 W
b00000000000000000000000000000000 X
b00000000000000001111111111100000 Y
b00011 [
b01100 ^
b0000010 `
b00010 a
b00000 b
b000 c
b01101 d
b0010011 e
b000001000011 f
b000001001100 g
b0000001001100 h
b000000000100001000010 i
b00000000000000000000000001000010 j
b00000000000000000000000001001101 k
b00000000000000000000100001001100 l
b00000000000000000000000001000010 m
b00000000000000000000000001000010 n
b00000000000000000000000011110100 r
0s
b00000000000000000000000000000000 t
b0000 u
0y
b00000000000000000000000000000000 z
b0000 |
b00000000000000000000000011110100 #!
1$!
1&!
#330
#335
0&!
#340
#345
b00000100000100000000010110010011 %
b00000000000000000000000000010001 *
b00000000000000000000000001000010 ;
b00000000000000000000000011110100 N
b00000000000000000000000011110100 O
b00000100001100000000011000010011 V
b00000000000000000000000011110000 W
b00000000000000000000000000000000 Y
b00001 [
b01011 ^
b00011 a
b01100 d
b000001000001 f
b000001001011 g
b0100001001010 h
b000000000100001000000 i
b00000000000000000000000001000011 j
b00000000000000000000000001001100 k
b00000000000000000000000001001100 l
b00000000000000000000100001000010 m
b00000000000000000000000001000011 n
b00000000000000000000000011111000 r
b00000000000000000000000011111000 #!
1&!
#350
#355
0&!
#360
#365
b00000000010000000000010100010011 %
b00000000000000000000000000010010 *
b00000000000000000000000001000011 :
b00000000000000000000000011111000 N
b00000000000000000000000011111000 O
b00000100000100000000010110010011 V
b00000000000000000000000011110100 W
b00000000000000000000000000001000 Y
b0000000 Z
b00100 [
b01010 ^
b00001 a
b01011 d
b000000000100 f
b000000001010 g
b0000000001010 h
b000000000000000000100 i
b00000000000000000000000001000001 j
b00000000000000000000000001001011 k
b00000000000000000000100001001010 l
b00000000000000000000100001000000 m
b00000000000000000000000001000001 n
b00000000000000000000000011111100 r
b00000000000000000000000011111100 #!
1&!
#370
#375
0&!
#380
#385
b11110100000111111111000011101111 %
b00000000000000000000000000010011 *
b00000000000000000000000001000001 9
b00000000000000000000000011111100 N
b00000000000000000000000011111100 O
b00000000010000000000010100010011 V
b00000000000000000000000011111000 W
b00000000000000000000000000000000 Y
b1111010 Z
b00001 [
b11111 \
b111 ]
b00001 ^
b1101111 _
b0000000 `
b00100 a
b01010 d
b111101000001 f
b111101000001 g
b1111101000000 h
b111111111111101000000 i
b00000000000000000000000000000100 j
b00000000000000000000000000001010 k
b00000000000000000000000000001010 l
b00000000000000000000000000000100 m
b00000000000000000000000000000100 n
b00000000000000000000000100000000 r
b00000000000000000000000100000000 #!
1&!
#390
#395
0&!
#400
#405
b00010010110000000000010000010011 %
b00000000000000000000000000010100 *
b00000000000000000000000000000100 8
b00000000000000000000000100000000 N
b00000000000000000000000100000000 O
1U
b11110100000111111111000011101111 V
b00000000000000000000000011111100 W
b00000000000000000000000000001000 Y
b0001001 Z
b01100 [
b00000 \
b000 ]
b01000 ^
b0010011 _
b1111010 `
b00001 a
b11111 b
b111 c
b00001 d
b1101111 e
b000100101100 f
b000100101000 g
b0000100101000 h
b000000000000100101100 i
b11111111111111111111111101000001 j
b11111111111111111111111101000001 k
b11111111111111111111111101000000 l
b11111111111111111111111101000000 m
b00000000000000000000000100000000 n
b00000000000000000000000000111100 r
b00000000000000000000000000111100 #!
1&!
#410
#415
0&!
#420
#425
b00000000000000000000000000000100 $
b11111110000000010000000100010011 %
b00000000000000000000000000010101 *
b00000000000000000000000100000000 /
b00000000000000000000000000111100 N
b00000000000000000000000000111100 O
0U
b00000000000000000000000000010011 V
b00000000000000000000000001000011 Y
b1111111 Z
b00000 [
b00010 \
b00010 ^
b0000000 `
b00000 a
b00000 b
b000 c
b00000 d
b0010011 e
b111111100000 f
b111111100010 g
b1011111100010 h
b100010000011111100000 i
b00000000000000000000000100101100 j
b00000000000000000000000100101000 k
b00000000000000000000000100101000 l
b00000000000000000000000100101100 m
b00000000000000000000000100101100 n
b00000000000000000000000001000000 r
b00000000000000000000000001000000 #!
1&!
#430
#435
0&!
#440
#445
b00000000000100010010111000100011 %
b00000000000000000000000000010110 *
b00000000000000000000000100101100 .
b00000000000000000000000001000000 N
b00000000000000000000000001000000 O
1R
b11111110000000010000000100010011 V
b00000000000000000000000000111100 W
b00000000000000001111111111100000 X
b00000000000000000000000000000000 Y
b0000000 Z
b00001 [
b010 ]
b11100 ^
b0100011 _
b1111111 `
b00010 b
b00010 d
b000000000001 f
b000000011100 g
b0000000011100 h
b000010010100000000000 i
b11111111111111111111111111100000 j
b11111111111111111111111111100010 k
b11111111111111111111011111100010 l
b11111111111100010000011111100000 m
b00000000000000001111111111000000 n
1&!
#450
#455
0&!
#460
#465
b00000000000000000000000000010111 *
b00000000000000001111111111000000 0
0R
b00000000000000000000000000010011 V
b00000000000000000000000100000000 Y
b0000000 `
b00000 b
b00000 d
b00000000000000000000000000000001 j
b00000000000000000000000000011100 k
b00000000000000000000000000011100 l
b00000000000000010010100000000000 m
b00000000000000001111111111100001 n
b00000000000000000000000001000100 r
b00000000000000000000000001000100 #!
1&!
#470
#475
0&!
#480
#485
b00000000100000010010110000100011 %
b00000000000000000000000000011000 *
b00000000000000001111111111100001 .
b00000000000000000000000001000100 N
b00000000000000000000000001000100 O
b00000000000100010010111000100011 V
b00000000000000000000000001000000 W
b00000000000000001111111111000000 X
b01000 [
b11000 ^
b00001 a
b00010 b
b010 c
b11100 d
b0100011 e
b000000001000 f
b000000011000 g
b0000000011000 h
b000010010000000001000 i
b00000000000000000000000000000000 n
b00000000000000000000000001001000 r
1s
b00000000000000001111111111011100 t
b1111 u
b00000000000000000000000100000000 v
1y
b00000000000000001111111111011100 z
b00000000000000000000000100000000 {
b1111 |
b00000000000000000000000001001000 #!
0$!
1&!
#490
#495
0&!
#500
#505
b00000000100100010010101000100011 %
b00000000000000000000000000011001 *
b00000000000000000000000001001000 N
b00000000000000000000000001001000 O
b00000000100000010010110000100011 V
b00000000000000000000000001000100 W
b00000000000000000000000000000000 Y
b01001 [
b10100 ^
b01000 a
b11000 d
b000000001001 f
b000000010100 g
b0000000010100 h
b000010010100000001000 i
b00000000000000000000000000001000 j
b00000000000000000000000000011000 k
b00000000000000000000000000011000 l
b00000000000000010010000000001000 m
b00000000000000000000000001001100 r
b00000000000000001111111111011000 t
b00000000000000000000000000000000 v
b00000000000000001111111111011000 z
b00000000000000000000000000000000 {
b00000000000000000000000001001100 #!
1&!
#510
#515
0&!
#520
#525
b00000001001000010010100000100011 %
b00000000000000000000000000011010 *
b00000000000000000000000001001100 N
b00000000000000000000000001001100 O
b00000000100100010010101000100011 V
b00000000000000000000000001001000 W
b10010 [
b10000 ^
b01001 a
b10100 d
b000000010010 f
b000000010000 g
b0000000010000 h
b000010010000000010010 i
b00000000000000000000000000001001 j
b00000000000000000000000000010100 k
b00000000000000000000000000010100 l
b00000000000000010010100000001000 m
b00000000000000000000000001010000 r
b00000000000000001111111111010100 t
b00000000000000001111111111010100 z
b00000000000000000000000001010000 #!
1&!
#530
#535
0&!
#540
#545
b00000001001100010010011000100011 %
b00000000000000000000000000011011 *
b00000000000000000000000001010000 N
b00000000000000000000000001010000 O
b00000001001000010010100000100011 V
b00000000000000000000000001001100 W
b10011 [
b01100 ^
b10010 a
b10000 d
b000000010011 f
b000000001100 g
b0000000001100 h
b000010010100000010010 i
b00000000000000000000000000010010 j
b00000000000000000000000000010000 k
b00000000000000000000000000010000 l
b00000000000000010010000000010010 m
b00000000000000000000000001010100 r
b00000000000000001111111111010000 t
b00000000000000001111111111010000 z
b00000000000000000000000001010100 #!
1&!
#550
#555
0&!
#560
#565
b00000001010000010010010000100011 %
b00000000000000000000000000011100 *
b00000000000000000000000001010100 N
b00000000000000000000000001010100 O
b00000001001100010010011000100011 V
b00000000000000000000000001010000 W
b10100 [
b01000 ^
b10011 a
b01100 d
b000000010100 f
b000000001000 g
b0000000001000 h
b000010010000000010100 i
b00000000000000000000000000010011 j
b00000000000000000000000000001100 k
b00000000000000000000000000001100 l
b00000000000000010010100000010010 m
b00000000000000000000000001011000 r
b00000000000000001111111111001100 t
b00000000000000001111111111001100 z
b00000000000000000000000001011000 #!
1&!
#570
#575
0&!
#580
#585
b00000000000001011000100100010011 %
b00000000000000000000000000011101 *
b00000000000000000000000001011000 N
b00000000000000000000000001011000 O
b00000001010000010010010000100011 V
b00000000000000000000000001010100 W
b00000 [
b01011 \
b000 ]
b10010 ^
b0010011 _
b10100 a
b01000 d
b000000000000 f
b000000010010 g
b0000000010010 h
b001011000000000000000 i
b00000000000000000000000000010100 j
b00000000000000000000000000001000 k
b00000000000000000000000000001000 l
b00000000000000010010000000010100 m
b00000000000000000000000001011100 r
b00000000000000001111111111001000 t
b00000000000000001111111111001000 z
b00000000000000000000000001011100 #!
1&!
#590
#595
0&!
#600
#605
b00000000000001100000010010010011 %
b00000000000000000000000000011110 *
b00000000000000000000000001011100 N
b00000000000000000000000001011100 O
b00000000000001011000100100010011 V
b00000000000000000000000001011000 W
b00000000000000000000000001000001 X
b01100 \
b01001 ^
b00000 a
b01011 b
b000 c
b10010 d
b0010011 e
b000000001001 g
b0100000001000 h
b001100000000000000000 i
b00000000000000000000000000000000 j
b00000000000000000000000000010010 k
b00000000000000000000000000010010 l
b00000000000001011000000000000000 m
b00000000000000000000000001000001 n
b00000000000000000000000001100000 r
0s
b00000000000000000000000000000000 t
b0000 u
0y
b00000000000000000000000000000000 z
b0000 |
b00000000000000000000000001100000 #!
1$!
1&!
#610
#615
0&!
#620
#625
b00000000000100000000011110010011 %
b00000000000000000000000000011111 *
b00000000000000000000000001000001 @
b00000000000000000000000001100000 N
b00000000000000000000000001100000 O
b00000000000001100000010010010011 V
b00000000000000000000000001011100 W
b00000000000000000000000001000011 X
b00001 [
b00000 \
b01111 ^
b01100 b
b01001 d
b000000000001 f
b000000001111 g
b0100000001110 h
b000000000100000000000 i
b00000000000000000000000000001001 k
b00000000000000000000100000001000 l
b00000000000001100000000000000000 m
b00000000000000000000000001000011 n
b00000000000000000000000001100100 r
b00000000000000000000000001100100 #!
1&!
#630
#635
0&!
#640
#645
b00000110111101010000001001100011 %
b00000000000000000000000000100000 *
b00000000000000000000000001000011 7
b00000000000000000000000001100100 N
b00000000000000000000000001100100 O
1T
b00000000000100000000011110010011 V
b00000000000000000000000001100000 W
b00000000000000000000000000000000 X
b00000000000000000000000100000000 Y
b0000011 Z
b01111 [
b01010 \
b00100 ^
b1100011 _
b00001 a
b00000 b
b01111 d
b000001101111 f
b000001100100 g
b0000001100100 h
b001010000100001101110 i
b00000000000000000000000000000001 j
b00000000000000000000000000001111 k
b00000000000000000000100000001110 l
b00000000000000000000100000000000 m
b00000000000000000000000000000001 n
b00000000000000000000000001101000 r
b00000000000000000000000001101000 #!
1&!
#650
#655
0&!
#660
#665
b00000000000001010000010000010011 %
b00000000000000000000000000100001 *
b00000000000000000000000000000001 =
b00000000000000000000000001101000 N
b00000000000000000000000001101000 O
0T
b00000110111101010000001001100011 V
b00000000000000000000000001100100 W
b00000000000000000000000000000100 X
b00000000000000000000000000000001 Y
b0000000 Z
b00000 [
b01000 ^
b0010011 _
b0000011 `
b01111 a
b01010 b
b00100 d
b1100011 e
b000000000000 f
b000000001000 g
b0000000001000 h
b001010000000000000000 i
b00000000000000000000000001101111 j
b00000000000000000000000001100100 k
b00000000000000000000000001100100 l
b00000000000001010000100001101110 m
b00000000000000000000000000000000 n
b00000000000000000000000001101100 r
b00000000000000000000000001101100 #!
0$!
1&!
#670
#675
0&!
#680
#685
b00000000000001101000100110010011 %
b00000000000000000000000000100010 *
b00000000000000000000000001101100 N
b00000000000000000000000001101100 O
b00000000000001010000010000010011 V
b00000000000000000000000001101000 W
b00000000000000000000000000000000 Y
b01101 \
b10011 ^
b0000000 `
b00000 a
b01000 d
b0010011 e
b000000010011 g
b0100000010010 h
b001101000000000000000 i
b00000000000000000000000000000000 j
b00000000000000000000000000001000 k
b00000000000000000000000000001000 l
b00000000000001010000000000000000 m
b00000000000000000000000000000100 n
b00000000000000000000000001110000 r
b00000000000000000000000001110000 #!
1$!
1&!
#690
#695
0&!
#700
#705
b11111111111101010000101000010011 %
b00000000000000000000000000100011 *
b00000000000000000000000000000100 6
b00000000000000000000000001110000 N
b00000000000000000000000001110000 O
b00000000000001101000100110010011 V
b00000000000000000000000001101100 W
b00000000000000000000000001000010 X
b1111111 Z
b11111 [
b01010 \
b10100 ^
b01101 b
b10011 d
b111111111111 f
b111111110100 g
b1011111110100 h
b101010000111111111110 i
b00000000000000000000000000010011 k
b00000000000000000000100000010010 l
b00000000000001101000000000000000 m
b00000000000000000000000001000010 n
b00000000000000000000000001110100 r
b00000000000000000000000001110100 #!
1&!
#710
#715
0&!
#720
